<?xml version="1.0" encoding="UTF-8"?>
<svg viewBox="0 0 531.74 460.5" width='12' height='12' xmlns='http://www.w3.org/2000/svg'>
    <g>
        <!-- <path d='m121.3,34.6c-1.6-1.6-4.2-1.6-5.8,0l-51,51.1-51.1-51.1c-1.6-1.6-4.2-1.6-5.8,0-1.6,1.6-1.6,4.2 0,5.8l53.9,53.9c0.8,0.8 1.8,1.2 2.9,1.2 1,0 2.1-0.4 2.9-1.2l53.9-53.9c1.7-1.6 1.7-4.2 0.1-5.8z' fill='#BEBEBE' /> -->
        <polygon stroke="#696969" fill="#696969" points="530.874,0.5 265.87,459.5 0.866,0.5 " />
    </g>
</svg>